<?xml version="1.0" standalone="no"?>
<!DOCTYPE svg PUBLIC "-//W3C//DTD SVG 1.1//EN" "http://www.w3.org/Graphics/SVG/1.1/DTD/svg11.dtd" >
<svg xmlns="http://www.w3.org/2000/svg">
<metadata>Generated by IcoMoon</metadata>
<defs>
<font id="iconfont" horiz-adv-x="1024">
<font-face units-per-em="1024" ascent="960" descent="-64" />
<missing-glyph horiz-adv-x="1024" />
<glyph unicode="&#x20;" horiz-adv-x="512" d="" />
<glyph unicode="&#x61;" glyph-name="close" d="M810 664.667l-238-238 238-238-60-60-238 238-238-238-60 60 238 238-238 238 60 60 238-238 238 238z" />
<glyph unicode="&#x62;" glyph-name="download" d="M883.968 289.44l-30.656-162.304h-682.624l-30.656 162.304h-76.32v-257.984h896.576v257.984h-76.32zM864.64 577.728h-224.704v93.76h-255.808v-93.76h-222.56l349.248-365.184 353.824 365.184zM639.904 832.576h-255.808v-34.112h255.808v34.112zM639.904 768.864h-255.808v-65.216h255.808v65.216z" />
<glyph unicode="&#x64;" glyph-name="filter-01" horiz-adv-x="751" d="M160.002 625.283c-13.986 0-26.882 3.469-38.342 10.307-44.711 26.686-51.688 94.556-15.904 154.506 25.242 42.292 66.553 69.618 105.224 69.618 13.986 0 26.876-3.469 38.342-10.307 44.705-26.686 51.688-94.556 15.904-154.506-25.249-42.292-66.547-69.618-105.224-69.618zM210.987 821.727c-25.192 0-54.366-20.538-72.612-51.099-24.040-40.273-22.78-87.174 2.767-102.42 5.483-3.273 11.833-4.932 18.861-4.932 25.192 0 54.36 20.538 72.612 51.099 24.040 40.273 22.78 87.174-2.767 102.42-5.483 3.267-11.827 4.932-18.861 4.932zM562.304 635.33c-34.106 0-71.137 18.158-99.083 48.573-47.231 51.422-54.195 119.299-15.841 154.525 14.024 12.884 32.536 19.69 53.518 19.69 34.112 0 71.144-18.158 99.083-48.579 21.684-23.603 35.67-51.985 39.386-79.931 4.052-30.44-4.318-56.93-23.546-74.588-14.017-12.884-32.523-19.69-53.518-19.69zM500.892 820.131c-7.882 0-19.12-1.678-27.832-9.68-21.906-20.121-13.606-66.307 18.12-100.849 20.557-22.381 47.813-36.284 71.106-36.284 7.882 0 19.12 1.678 27.832 9.68 9.839 9.035 13.948 23.812 11.58 41.609-2.703 20.285-13.251 41.324-29.693 59.241-20.551 22.374-47.8 36.284-71.112 36.284zM398.346 577.026c-8.123 0-15.651 5.255-18.152 13.422l-31.491 102.489c-3.077 10.022 2.545 20.652 12.574 23.736 10.010 3.077 20.665-2.551 23.736-12.58l31.498-102.489c3.071-10.022-2.551-20.652-12.58-23.736-1.855-0.57-3.735-0.842-5.584-0.842zM332.235 627.492c-3.602 0-7.256 1.032-10.503 3.185-8.731 5.806-11.099 17.601-5.293 26.331l34.619 52.030c5.812 8.724 17.582 11.111 26.331 5.293 8.731-5.806 11.099-17.601 5.293-26.331l-34.613-52.030c-3.666-5.502-9.693-8.477-15.834-8.477zM330.222 756.636c-4.134 0-8.307 1.342-11.789 4.109-8.218 6.515-9.604 18.462-3.077 26.68l131.113 165.371c6.508 8.224 18.455 9.604 26.686 3.083 8.224-6.515 9.604-18.462 3.077-26.68l-131.113-165.371c-3.748-4.723-9.294-7.192-14.897-7.192zM398.859 921.051c-10.364 0-18.835 8.313-18.987 18.702-0.158 10.491 8.212 19.127 18.702 19.278l62.482 0.956c10.567 0.285 19.127-8.212 19.285-18.702s-8.212-19.114-18.702-19.272l-62.482-0.956c-0.101-0.006-0.196-0.006-0.298-0.006zM427.697-64h-104.192c-30.744 0-55.771 25.015-55.771 55.771v219.205l-253.754 323.403c-19.038 24.267-14.517 43.020-10.136 52.042 4.539 9.326 17.069 24.97 50.042 24.97h643.407c32.973 0 45.509-15.644 50.042-24.964 4.375-9.022 8.895-27.775-10.143-52.042l-253.754-323.416v-219.205c0.013-30.751-24.996-55.765-55.74-55.765zM53.897 573.399c-11.099 0-15.378-2.887-15.923-3.659-0.12-0.589 0.342-4.843 5.894-11.915l257.806-328.57c2.621-3.337 4.058-7.471 4.058-11.725v-225.764c0-9.807 7.977-17.791 17.784-17.791h104.192c9.801 0 17.772 7.984 17.772 17.791v225.764c0 4.255 1.437 8.37 4.058 11.725l257.812 328.576c5.552 7.072 6.002 11.326 5.818 12.080-0.462 0.608-4.748 3.495-15.841 3.495l-643.432-0.006z" />
<glyph unicode="&#x65;" glyph-name="notification-01" horiz-adv-x="918" d="M900.804 122.971c-108.815 49.142-112.958 260.084-113.040 265.409v141.512c0 136.201-83.228 253.326-201.496 303.196-0.261 70.024-57.289 126.913-127.369 126.913-70.074 0-127.107-56.895-127.361-126.913-118.269-49.87-201.496-166.986-201.496-303.188v-141.52c-0.082-5.319-4.225-216.258-113.048-265.409-12.394-5.597-19.208-19.093-16.341-32.393 2.861-13.292 14.626-22.793 28.229-22.793h275.872c5.653-31.111 20.367-60.058 42.868-83.497 29.886-31.136 69.405-48.285 111.275-48.285 41.872 0 81.389 17.148 111.266 48.285 22.509 23.44 37.214 52.386 42.868 83.497h275.875c13.612 0 25.368 9.493 28.235 22.793s-3.942 26.796-16.337 32.393v0zM757.454 224.024c11.447-34.681 27.639-69.509 50.612-98.498h-698.337c22.965 28.978 39.166 63.808 50.604 98.498h597.12zM458.899 902.245c31.699 0 58.506-21.298 66.887-50.326-21.601 4.476-43.97 6.837-66.887 6.837-22.908 0-45.277-2.361-66.887-6.837 8.387 29.028 35.186 50.326 66.887 50.326v0zM187.786 388.199v141.7c0 149.487 121.619 271.104 271.112 271.104 149.495 0 271.112-121.617 271.112-271.104v-141.928c0.042-4.346 0.719-50 12.223-106.192h-566.672c11.512 56.249 12.194 101.976 12.225 106.42v0zM458.899-6.253c-44.068 0-82.542 31.781-94.886 74.035h189.771c-12.344-42.255-50.809-74.035-94.886-74.035v0zM458.899 760.497c-124.232 0-225.31-101.070-225.31-225.304 0-15.948 12.932-28.88 28.88-28.88s28.873 12.932 28.873 28.88c0 92.386 75.171 167.551 167.557 167.551 15.948 0 28.882 12.923 28.882 28.871-0.002 15.956-12.934 28.882-28.882 28.882v0z" />
<glyph unicode="&#x66;" glyph-name="facebook-01" horiz-adv-x="478" d="M272.401-63.798v512.404h169.153l26.947 170.162h-196.1v84.98c0 44.408 14.634 86.595 78.016 86.595h127.369v169.657h-180.557c-151.793 0-193.173-100.22-193.173-238.59v-102.844h-104.055v-170.162h104.055v-512.404l168.345 0.202z" />
<glyph unicode="&#x67;" glyph-name="Search-01" d="M995.875 99.877l-234.941 234.941c-35-54.442-81.307-100.752-135.752-135.752l234.941-234.941c37.5-37.5 98.31-37.5 135.752 0 37.5 37.442 37.5 98.252 0 135.752v0zM767.994 575.999c0 212.069-171.932 384.001-383.991 384.001-212.071 0-384.003-171.932-384.003-384.001 0-212.061 171.932-383.993 384.003-383.993 212.059 0 383.991 171.932 383.991 383.993v0zM384.003 288.001c-158.819 0-288.009 129.189-288.009 287.999 0 158.817 129.189 288.006 288.009 288.006 158.807 0 287.996-129.189 287.996-288.006 0-158.809-129.189-287.999-287.996-287.999v0zM159.999 575.999h64.005c0 88.222 71.775 159.999 159.999 159.999v64.002c-123.507 0-224.004-100.497-224.004-224.001v0z" />
<glyph unicode="&#x68;" glyph-name="SEM" d="M0 960v-1024h1024.003v1024h-1024.003zM960.661 896.661v-256.878h-897.322v256.878h897.322zM640.447 319.556h-577.108v256.887h577.104l0.003-256.887zM63.339 256.217h577.104v-256.881h-577.104v256.881zM703.786-0.661v577.104h256.878v-577.104h-256.878z" />
<glyph unicode="&#x69;" glyph-name="settingicon-01" d="M980.89 523.434l-65.931 0.217c-10.143 54.095-31.48 106.705-63.392 153.827l46.916 46.699c16.899 16.91 17.116 44.169 0.206 61.287l-47.122 47.328c-16.899 16.899-44.161 17.116-61.277 0.217l-46.905-46.71c-47.122 32.335-99.526 53.892-153.621 64.24l0.206 65.931c0 23.875-19.232 43.323-43.107 43.323l-66.765 0.206c-23.886 0-43.326-19.232-43.326-43.107l-0.206-65.508c-54.518-10.143-107.345-31.057-154.889-63.176l-45.854 46.057c-16.91 16.913-44.169 16.913-61.287 0.217l-47.328-47.119c-16.899-16.913-17.116-44.161-0.217-61.279l45.645-45.645c-32.748-47.338-54.518-100.165-65.083-154.672l-64.024 0.206c-23.875 0-43.323-19.234-43.323-43.11l-0.206-66.776c0-23.875 19.232-43.313 43.107-43.313l63.599-0.206c10.143-54.943 31.274-107.986 63.818-155.953l-45.006-44.789c-16.902-16.91-17.119-44.171-0.209-61.287l47.122-47.328c16.902-16.913 44.161-17.119 61.277-0.219l45.009 44.8c47.761-32.748 100.794-54.304 155.518-64.66l-0.206-63.599c0-23.875 19.234-43.323 43.11-43.323l66.776-0.206c23.875 0 43.313 19.232 43.313 43.107l0.206 64.021c54.52 10.359 107.564 31.696 155.108 64.238l45.429-45.635c16.899-16.91 44.161-17.116 61.277-0.217l47.338 47.122c16.899 16.899 17.116 44.161 0.206 61.277l-45.851 46.068c32.325 47.328 53.672 99.949 63.815 154.466l65.508-0.217c23.875 0 43.313 19.232 43.313 43.107l0.217 66.776c0.425 23.878-19.026 43.318-42.901 43.318v0zM512 168.645c-154.252 0-279.355 125.102-279.355 279.352 0 154.252 125.102 279.355 279.355 279.355 154.25 0 279.355-125.102 279.355-279.355 0-154.247-125.105-279.352-279.355-279.352v0zM512 549.217c-55.788 0-101.217-45.429-101.217-101.217 0-24.298-19.657-43.952-43.955-43.952s-43.955 19.654-43.955 43.952c0 104.386 84.946 189.332 189.343 189.332 24.298 0 43.944-19.657 43.944-43.955s-19.863-44.161-44.161-44.161v0z" />
<glyph unicode="&#x6a;" glyph-name="usericon-01" d="M977.621 479.797c0.581-8.674 0.952-17.386 1.051-26.142 1.43-122.256-44.144-238.336-128.277-326.861-1.008-1.042-1.985-2.102-2.976-3.161-1.731-1.869-3.484-3.734-5.297-5.551-181.926-181.909-477.934-181.909-659.842 0-0.973 0.978-1.917 1.951-2.842 2.946-0.052 1.899-0.099 3.786-0.099 5.638 0 4.173 0.082 8.312 0.233 12.451 0.052 1.378 0.151 2.743 0.22 4.122 0.134 2.743 0.271 5.5 0.469 8.226 0.121 1.632 0.289 3.247 0.439 4.862 0.22 2.472 0.422 4.931 0.689 7.386 0.185 1.714 0.439 3.432 0.659 5.164 0.284 2.321 0.568 4.66 0.904 6.964 0.271 1.766 0.573 3.514 0.879 5.267 0.353 2.252 0.724 4.526 1.141 6.762 0.319 1.766 0.689 3.532 1.059 5.297 0.439 2.205 0.874 4.406 1.365 6.594 0.401 1.766 0.84 3.532 1.262 5.297 0.521 2.153 1.025 4.307 1.581 6.443 0.469 1.766 0.973 3.532 1.464 5.284 0.586 2.119 1.176 4.221 1.8 6.327 0.538 1.749 1.094 3.501 1.662 5.233 0.659 2.067 1.314 4.156 2.020 6.206 0.59 1.731 1.21 3.45 1.835 5.181 0.724 2.037 1.464 4.070 2.235 6.090 0.659 1.714 1.331 3.415 2.020 5.116 0.81 2.003 1.615 4.005 2.459 5.991 0.706 1.684 1.443 3.364 2.184 5.030 0.874 1.968 1.77 3.936 2.674 5.87 0.775 1.667 1.568 3.316 2.373 4.961 0.943 1.917 1.886 3.855 2.877 5.771 0.827 1.615 1.667 3.23 2.524 4.828 1.012 1.899 2.037 3.803 3.097 5.685 0.891 1.581 1.783 3.161 2.692 4.729 1.077 1.869 2.188 3.717 3.295 5.569 0.943 1.546 1.904 3.097 2.864 4.625 1.141 1.835 2.321 3.652 3.497 5.452 0.995 1.516 2.003 3.010 3.010 4.509 1.215 1.8 2.459 3.566 3.721 5.332 1.042 1.464 2.084 2.946 3.144 4.393 1.296 1.749 2.61 3.484 3.919 5.198 1.094 1.43 2.188 2.86 3.299 4.272 1.361 1.701 2.743 3.398 4.139 5.082 1.124 1.378 2.252 2.761 3.415 4.122 1.43 1.667 2.894 3.329 4.341 4.961 1.176 1.331 2.351 2.674 3.549 3.988 1.494 1.632 3.028 3.23 4.557 4.828 1.215 1.279 2.425 2.575 3.669 3.837 1.563 1.581 3.178 3.144 4.776 4.712 1.245 1.227 2.489 2.455 3.768 3.669 1.649 1.546 3.333 3.079 5.013 4.591 1.279 1.163 2.541 2.339 3.837 3.484 1.731 1.529 3.514 3.010 5.284 4.509 1.292 1.094 2.571 2.205 3.885 3.265 1.835 1.499 3.7 2.963 5.569 4.406 1.314 1.025 2.588 2.067 3.902 3.062 1.968 1.499 3.988 2.929 5.991 4.376 1.262 0.926 2.507 1.852 3.786 2.761 2.201 1.546 4.475 3.045 6.727 4.561 1.111 0.741 2.205 1.516 3.316 2.24 2.942 1.917 5.939 3.768 8.949 5.586 0.469 0.284 0.926 0.59 1.395 0.874 3.501 2.084 7.033 4.104 10.599 6.073 1.227 0.672 2.489 1.314 3.717 1.968 2.373 1.262 4.746 2.541 7.166 3.751 1.55 0.792 3.131 1.516 4.694 2.27 1.968 0.96 3.936 1.917 5.922 2.842 37.464-35.802 87.449-56.057 139.332-56.057 51.879 0 101.863 20.272 139.345 56.057 73.129-33.847 133.006-94.581 165.509-168.45 4.591-10.448 16.788-15.19 27.236-10.599 10.448 4.608 15.19 16.805 10.599 27.253-35.548 80.786-97.44 145.353-175.785 184.333 22.727 33.347 35.027 72.711 35.027 113.341 0 111.334-90.575 201.931-201.927 201.931-11.409 0-20.677-9.255-20.677-20.677 0-11.409 9.268-20.677 20.677-20.677 88.556 0 160.595-72.039 160.595-160.577 0-39.605-14.72-77.724-41.435-107.35l-0.017-0.017c-30.5-33.83-73.921-53.227-119.142-53.227s-88.642 19.398-119.142 53.227c-0.017 0.017-0.017 0.017-0.017 0.017-26.715 29.643-41.435 67.745-41.435 107.35 0 43.218 16.921 83.762 47.641 114.146 8.127 8.041 8.191 21.129 0.168 29.239-8.041 8.123-21.129 8.191-29.239 0.168-38.627-38.222-59.907-89.197-59.907-143.553 0-40.578 12.266-79.929 34.958-113.255-0.202-0.103-0.405-0.202-0.603-0.301-1.615-0.81-3.183-1.667-4.798-2.494-2.438-1.258-4.892-2.519-7.317-3.85-1.701-0.926-3.381-1.899-5.065-2.86-2.252-1.279-4.526-2.541-6.744-3.872-1.736-1.025-3.432-2.084-5.134-3.131-2.136-1.331-4.272-2.64-6.374-3.988-1.714-1.111-3.415-2.24-5.116-3.381-2.033-1.361-4.070-2.726-6.090-4.122-1.697-1.176-3.364-2.39-5.030-3.583-1.968-1.413-3.919-2.842-5.853-4.29-1.667-1.245-3.299-2.507-4.927-3.768-1.904-1.482-3.786-2.963-5.638-4.457-1.615-1.314-3.213-2.623-4.811-3.954-1.817-1.529-3.635-3.079-5.435-4.643-1.563-1.348-3.114-2.709-4.643-4.087-1.783-1.598-3.532-3.213-5.267-4.845-1.512-1.395-3.010-2.808-4.492-4.238-1.714-1.649-3.415-3.346-5.095-5.030-1.447-1.447-2.877-2.894-4.29-4.358-1.667-1.731-3.316-3.484-4.948-5.25-1.378-1.482-2.743-2.946-4.087-4.44-1.649-1.817-3.23-3.682-4.828-5.534-1.296-1.482-2.593-2.963-3.855-4.457-1.615-1.951-3.178-3.919-4.759-5.887-1.18-1.482-2.39-2.929-3.532-4.406-1.667-2.136-3.265-4.307-4.88-6.477-1.012-1.378-2.054-2.709-3.045-4.087-2.037-2.825-4.023-5.685-5.973-8.579-0.521-0.758-1.059-1.499-1.563-2.252-2.442-3.635-4.815-7.317-7.119-11.038-0.788-1.279-1.546-2.593-2.321-3.885-1.494-2.472-2.993-4.944-4.423-7.468-0.891-1.563-1.749-3.161-2.61-4.746-1.262-2.27-2.519-4.544-3.734-6.848-0.891-1.701-1.749-3.432-2.606-5.147-1.128-2.222-2.257-4.423-3.333-6.68-0.857-1.783-1.68-3.583-2.507-5.383-1.025-2.205-2.050-4.423-3.028-6.663-0.81-1.835-1.581-3.7-2.356-5.551-0.926-2.24-1.848-4.457-2.739-6.714-0.758-1.886-1.464-3.786-2.188-5.685-0.84-2.252-1.684-4.509-2.489-6.779-0.676-1.917-1.348-3.855-2.003-5.806-0.758-2.27-1.516-4.561-2.24-6.848-0.603-1.968-1.21-3.919-1.8-5.887-0.689-2.321-1.344-4.643-1.985-6.981-0.556-1.968-1.090-3.936-1.598-5.922-0.603-2.373-1.193-4.729-1.749-7.115-0.469-1.985-0.943-3.954-1.378-5.956-0.538-2.407-1.029-4.828-1.516-7.253-0.388-1.985-0.788-3.971-1.159-5.973-0.457-2.472-0.861-4.961-1.262-7.451-0.323-1.951-0.659-3.919-0.943-5.887-0.37-2.575-0.689-5.147-1.008-7.739-0.237-1.917-0.508-3.837-0.711-5.754-0.301-2.709-0.521-5.435-0.754-8.161-0.168-1.817-0.353-3.618-0.491-5.452-0.215-3.045-0.366-6.090-0.504-9.152-0.086-1.529-0.185-3.028-0.25-4.561-0.168-4.591-0.254-9.186-0.254-13.812 0-4.996 0.168-9.725 0.37-14.923 0.052-1.21 0.22-2.39 0.452-3.532 0.017-0.086 0.034-0.168 0.052-0.271 0.254-1.128 0.624-2.205 1.042-3.247 0.052-0.099 0.086-0.202 0.138-0.319 0.435-1.025 0.973-2.020 1.563-2.946 0.082-0.116 0.151-0.237 0.237-0.353 0.603-0.926 1.292-1.783 2.033-2.593 0.069-0.069 0.103-0.134 0.151-0.185l2.726-2.911c2.072-2.205 4.122-4.406 6.275-6.546 99.021-99.021 229.102-148.531 359.162-148.531 130.077 0 260.137 49.51 359.162 148.531 2.153 2.136 4.208 4.341 6.275 6.546l2.726 2.911c91.618 96.364 141.214 222.724 139.668 355.816-0.099 8.596-0.422 17.158-0.947 25.685h-41.453zM871.356 807.162c-198.042 198.042-520.273 198.042-718.319 0-69.481-69.481-117.006-156.775-137.446-252.449-19.902-93.151-13.39-189.67 18.842-279.099 3.872-10.732 15.728-16.301 26.465-12.434 10.732 3.867 16.301 15.711 12.429 26.465-29.609 82.164-35.595 170.84-17.309 256.437 18.756 87.849 62.431 168.015 126.257 231.858 181.909 181.909 477.916 181.909 659.842 0 80.446-80.446 127.984-185.496 135.503-298.144h41.44c-7.593 123.707-59.472 239.133-147.704 327.365z" />
<glyph unicode="&#x6b;" glyph-name="VectorSmartObjectcopy-01" horiz-adv-x="1135" d="M1067.006 656.629h-996.913c-38.647 0-70.093-31.445-70.093-70.093v-213.625c0-38.648 31.445-70.093 70.093-70.093h623.066c9.214 0 16.689 7.475 16.689 16.689s-7.476 16.689-16.689 16.689h-623.066c-20.243 0-36.714 16.473-36.714 36.714v213.625c0 20.243 16.472 36.714 36.714 36.714h996.912c20.242 0 36.714-16.472 36.714-36.714v-160.223c0-9.212 7.475-16.689 16.689-16.689s16.689 7.477 16.689 16.689v160.223c0 38.647-31.445 70.093-70.093 70.093v0zM1065.886 386.852v21.666c0 77.917-63.389 141.307-141.305 141.307-77.905 0-141.294-63.389-141.294-141.307v-21.666c-20.678-6.975-35.606-26.543-35.606-49.545v-178.020c0-28.837 23.459-52.296 52.296-52.296h249.22c28.837 0 52.295 23.459 52.295 52.296v178.019c-0.001 23.002-14.93 42.571-35.607 49.546v0zM924.582 516.445c59.51 0 107.926-48.419 107.926-107.928v-18.916h-215.842v18.916c0 59.509 48.405 107.928 107.915 107.928v0zM1068.114 159.286c0-10.431-8.486-18.917-18.917-18.917h-249.22c-10.431 0-18.917 8.486-18.917 18.917v178.020c0 10.43 8.485 18.915 18.917 18.915h249.22c10.431 0 18.917-8.485 18.917-18.915v-178.020zM270.831 523.668c-4.606 7.986-14.82 10.727-22.795 6.109l-36.638-21.146v42.299c0 9.216-7.477 16.689-16.689 16.689s-16.689-7.474-16.689-16.689v-42.299l-36.638 21.146c-7.975 4.618-18.189 1.878-22.795-6.109-4.606-7.974-1.869-18.189 6.107-22.795l36.638-21.157-36.638-21.142c-7.975-4.606-10.713-14.821-6.107-22.794 3.097-5.358 8.703-8.356 14.472-8.356 2.826 0 5.705 0.725 8.322 2.236l36.638 21.156v-42.299c0-9.215 7.476-16.689 16.689-16.689 9.212 0 16.689 7.474 16.689 16.689v42.299l36.638-21.156c2.617-1.51 5.497-2.236 8.323-2.236 5.768 0 11.376 2.998 14.472 8.356 4.606 7.973 1.869 18.188-6.107 22.794l-36.638 21.142 36.638 21.157c7.976 4.606 10.714 14.821 6.107 22.795v0zM484.456 523.668c-4.617 7.986-14.82 10.727-22.806 6.109l-36.628-21.146v42.299c0 9.216-7.476 16.689-16.689 16.689s-16.689-7.474-16.689-16.689v-42.299l-36.638 21.146c-7.976 4.618-18.189 1.878-22.795-6.109-4.61-7.974-1.869-18.189 6.105-22.795l36.638-21.157-36.638-21.142c-7.975-4.606-10.715-14.821-6.105-22.794 3.084-5.358 8.7-8.356 14.471-8.356 2.824 0 5.695 0.725 8.324 2.236l36.638 21.156v-42.299c0-9.215 7.476-16.689 16.689-16.689s16.689 7.474 16.689 16.689v42.299l36.628-21.156c2.629-1.51 5.496-2.236 8.333-2.236 5.77 0 11.377 2.998 14.472 8.356 4.608 7.973 1.869 18.188-6.117 22.794l-36.628 21.142 36.628 21.157c7.986 4.606 10.725 14.821 6.117 22.795v0zM698.070 523.668c-4.607 7.986-14.809 10.727-22.796 6.109l-36.627-21.146v42.299c0 9.216-7.476 16.689-16.689 16.689-9.225 0-16.689-7.474-16.689-16.689v-42.299l-36.637 21.146c-7.986 4.618-18.188 1.878-22.798-6.109-4.605-7.974-1.877-18.189 6.109-22.795l36.637-21.157-36.637-21.142c-7.986-4.606-10.714-14.821-6.109-22.794 3.086-5.358 8.704-8.356 14.465-8.356 2.834 0 5.702 0.725 8.333 2.236l36.637 21.156v-42.299c0-9.215 7.464-16.689 16.689-16.689 9.214 0 16.689 7.474 16.689 16.689v42.299l36.627-21.156c2.629-1.51 5.498-2.236 8.334-2.236 5.769 0 11.376 2.998 14.461 8.356 4.617 7.973 1.879 18.188-6.107 22.794l-36.627 21.142 36.627 21.157c7.986 4.606 10.725 14.821 6.107 22.795v0zM924.582 318.389c-28.826 0-52.285-23.458-52.285-52.284 0-23.003 14.929-42.572 35.595-49.547v-21.666c0-9.214 7.475-16.689 16.689-16.689 9.224 0 16.689 7.475 16.689 16.689v21.666c20.676 6.975 35.606 26.544 35.606 49.547-0.001 28.826-23.458 52.284-52.295 52.284v0zM924.582 247.188c-10.42 0-18.906 8.485-18.906 18.917 0 10.42 8.487 18.905 18.906 18.905 10.431 0 18.916-8.485 18.916-18.905 0-10.431-8.486-18.917-18.916-18.917v0z" />
</font></defs></svg>